^C:\USERS\RUBEN\DOCUMENTS\UOC\PROGRAMACIONGRAFICA\PEC1\PARATROOPER\_BUILD\AUDIOMANAGER.CPP
/c /I..\GAME /I..\GAME\SRC /I..\GAME\INCLUDE /I"..\RAYLIB-MASTER\SRC" /I"..\RAYLIB-MASTER\SRC\EXTERNAL" /I"..\RAYLIB-MASTER\SRC\EXTERNAL\GLFW\INCLUDE" /ZI /JMC /nologo /W3 /WX- /diagnostics:column /Od /D DEBUG /D PLATFORM_DESKTOP /D GRAPHICS_API_OPENGL_33 /D _WINSOCK_DEPRECATED_NO_WARNINGS /D _CRT_SECURE_NO_WARNINGS /D _WIN32 /D _MBCS /Gm- /EHsc /RTC1 /MDd /GS /fp:precise /Zc:wchar_t /Zc:forScope /Zc:inline /Fo"OBJ\X64\DEBUG\GAME-PREMAKE-MAIN\\" /Fd"OBJ\X64\DEBUG\GAME-PREMAKE-MAIN\VC143.PDB" /external:W3 /Gd /TP /FC C:\USERS\RUBEN\DOCUMENTS\UOC\PROGRAMACIONGRAFICA\PEC1\PARATROOPER\_BUILD\AUDIOMANAGER.CPP
^C:\USERS\RUBEN\DOCUMENTS\UOC\PROGRAMACIONGRAFICA\PEC1\PARATROOPER\_BUILD\ENEMYMANAGER.CPP
/c /I..\GAME /I..\GAME\SRC /I..\GAME\INCLUDE /I"..\RAYLIB-MASTER\SRC" /I"..\RAYLIB-MASTER\SRC\EXTERNAL" /I"..\RAYLIB-MASTER\SRC\EXTERNAL\GLFW\INCLUDE" /ZI /JMC /nologo /W3 /WX- /diagnostics:column /Od /D DEBUG /D PLATFORM_DESKTOP /D GRAPHICS_API_OPENGL_33 /D _WINSOCK_DEPRECATED_NO_WARNINGS /D _CRT_SECURE_NO_WARNINGS /D _WIN32 /D _MBCS /Gm- /EHsc /RTC1 /MDd /GS /fp:precise /Zc:wchar_t /Zc:forScope /Zc:inline /Fo"OBJ\X64\DEBUG\GAME-PREMAKE-MAIN\\" /Fd"OBJ\X64\DEBUG\GAME-PREMAKE-MAIN\VC143.PDB" /external:W3 /Gd /TP /FC C:\USERS\RUBEN\DOCUMENTS\UOC\PROGRAMACIONGRAFICA\PEC1\PARATROOPER\_BUILD\ENEMYMANAGER.CPP
^C:\USERS\RUBEN\DOCUMENTS\UOC\PROGRAMACIONGRAFICA\PEC1\PARATROOPER\_BUILD\GAMEMANAGER.CPP
/c /I..\GAME /I..\GAME\SRC /I..\GAME\INCLUDE /I"..\RAYLIB-MASTER\SRC" /I"..\RAYLIB-MASTER\SRC\EXTERNAL" /I"..\RAYLIB-MASTER\SRC\EXTERNAL\GLFW\INCLUDE" /ZI /JMC /nologo /W3 /WX- /diagnostics:column /Od /D DEBUG /D PLATFORM_DESKTOP /D GRAPHICS_API_OPENGL_33 /D _WINSOCK_DEPRECATED_NO_WARNINGS /D _CRT_SECURE_NO_WARNINGS /D _WIN32 /D _MBCS /Gm- /EHsc /RTC1 /MDd /GS /fp:precise /Zc:wchar_t /Zc:forScope /Zc:inline /Fo"OBJ\X64\DEBUG\GAME-PREMAKE-MAIN\\" /Fd"OBJ\X64\DEBUG\GAME-PREMAKE-MAIN\VC143.PDB" /external:W3 /Gd /TP /FC C:\USERS\RUBEN\DOCUMENTS\UOC\PROGRAMACIONGRAFICA\PEC1\PARATROOPER\_BUILD\GAMEMANAGER.CPP
^C:\USERS\RUBEN\DOCUMENTS\UOC\PROGRAMACIONGRAFICA\PEC1\PARATROOPER\_BUILD\HELICOPTER.CPP
/c /I..\GAME /I..\GAME\SRC /I..\GAME\INCLUDE /I"..\RAYLIB-MASTER\SRC" /I"..\RAYLIB-MASTER\SRC\EXTERNAL" /I"..\RAYLIB-MASTER\SRC\EXTERNAL\GLFW\INCLUDE" /ZI /JMC /nologo /W3 /WX- /diagnostics:column /Od /D DEBUG /D PLATFORM_DESKTOP /D GRAPHICS_API_OPENGL_33 /D _WINSOCK_DEPRECATED_NO_WARNINGS /D _CRT_SECURE_NO_WARNINGS /D _WIN32 /D _MBCS /Gm- /EHsc /RTC1 /MDd /GS /fp:precise /Zc:wchar_t /Zc:forScope /Zc:inline /Fo"OBJ\X64\DEBUG\GAME-PREMAKE-MAIN\\" /Fd"OBJ\X64\DEBUG\GAME-PREMAKE-MAIN\VC143.PDB" /external:W3 /Gd /TP /FC C:\USERS\RUBEN\DOCUMENTS\UOC\PROGRAMACIONGRAFICA\PEC1\PARATROOPER\_BUILD\HELICOPTER.CPP
^C:\USERS\RUBEN\DOCUMENTS\UOC\PROGRAMACIONGRAFICA\PEC1\PARATROOPER\_BUILD\PARATROOPER.CPP
/c /I..\GAME /I..\GAME\SRC /I..\GAME\INCLUDE /I"..\RAYLIB-MASTER\SRC" /I"..\RAYLIB-MASTER\SRC\EXTERNAL" /I"..\RAYLIB-MASTER\SRC\EXTERNAL\GLFW\INCLUDE" /ZI /JMC /nologo /W3 /WX- /diagnostics:column /Od /D DEBUG /D PLATFORM_DESKTOP /D GRAPHICS_API_OPENGL_33 /D _WINSOCK_DEPRECATED_NO_WARNINGS /D _CRT_SECURE_NO_WARNINGS /D _WIN32 /D _MBCS /Gm- /EHsc /RTC1 /MDd /GS /fp:precise /Zc:wchar_t /Zc:forScope /Zc:inline /Fo"OBJ\X64\DEBUG\GAME-PREMAKE-MAIN\\" /Fd"OBJ\X64\DEBUG\GAME-PREMAKE-MAIN\VC143.PDB" /external:W3 /Gd /TP /FC C:\USERS\RUBEN\DOCUMENTS\UOC\PROGRAMACIONGRAFICA\PEC1\PARATROOPER\_BUILD\PARATROOPER.CPP
^C:\USERS\RUBEN\DOCUMENTS\UOC\PROGRAMACIONGRAFICA\PEC1\PARATROOPER\_BUILD\PLAYER.CPP
/c /I..\GAME /I..\GAME\SRC /I..\GAME\INCLUDE /I"..\RAYLIB-MASTER\SRC" /I"..\RAYLIB-MASTER\SRC\EXTERNAL" /I"..\RAYLIB-MASTER\SRC\EXTERNAL\GLFW\INCLUDE" /ZI /JMC /nologo /W3 /WX- /diagnostics:column /Od /D DEBUG /D PLATFORM_DESKTOP /D GRAPHICS_API_OPENGL_33 /D _WINSOCK_DEPRECATED_NO_WARNINGS /D _CRT_SECURE_NO_WARNINGS /D _WIN32 /D _MBCS /Gm- /EHsc /RTC1 /MDd /GS /fp:precise /Zc:wchar_t /Zc:forScope /Zc:inline /Fo"OBJ\X64\DEBUG\GAME-PREMAKE-MAIN\\" /Fd"OBJ\X64\DEBUG\GAME-PREMAKE-MAIN\VC143.PDB" /external:W3 /Gd /TP /FC C:\USERS\RUBEN\DOCUMENTS\UOC\PROGRAMACIONGRAFICA\PEC1\PARATROOPER\_BUILD\PLAYER.CPP
^C:\USERS\RUBEN\DOCUMENTS\UOC\PROGRAMACIONGRAFICA\PEC1\PARATROOPER\_BUILD\SCREEN_ENDING.CPP
/c /I..\GAME /I..\GAME\SRC /I..\GAME\INCLUDE /I"..\RAYLIB-MASTER\SRC" /I"..\RAYLIB-MASTER\SRC\EXTERNAL" /I"..\RAYLIB-MASTER\SRC\EXTERNAL\GLFW\INCLUDE" /ZI /JMC /nologo /W3 /WX- /diagnostics:column /Od /D DEBUG /D PLATFORM_DESKTOP /D GRAPHICS_API_OPENGL_33 /D _WINSOCK_DEPRECATED_NO_WARNINGS /D _CRT_SECURE_NO_WARNINGS /D _WIN32 /D _MBCS /Gm- /EHsc /RTC1 /MDd /GS /fp:precise /Zc:wchar_t /Zc:forScope /Zc:inline /Fo"OBJ\X64\DEBUG\GAME-PREMAKE-MAIN\\" /Fd"OBJ\X64\DEBUG\GAME-PREMAKE-MAIN\VC143.PDB" /external:W3 /Gd /TP /FC C:\USERS\RUBEN\DOCUMENTS\UOC\PROGRAMACIONGRAFICA\PEC1\PARATROOPER\_BUILD\SCREEN_ENDING.CPP
^C:\USERS\RUBEN\DOCUMENTS\UOC\PROGRAMACIONGRAFICA\PEC1\PARATROOPER\_BUILD\SCREEN_GAMEPLAY.CPP
/c /I..\GAME /I..\GAME\SRC /I..\GAME\INCLUDE /I"..\RAYLIB-MASTER\SRC" /I"..\RAYLIB-MASTER\SRC\EXTERNAL" /I"..\RAYLIB-MASTER\SRC\EXTERNAL\GLFW\INCLUDE" /ZI /JMC /nologo /W3 /WX- /diagnostics:column /Od /D DEBUG /D PLATFORM_DESKTOP /D GRAPHICS_API_OPENGL_33 /D _WINSOCK_DEPRECATED_NO_WARNINGS /D _CRT_SECURE_NO_WARNINGS /D _WIN32 /D _MBCS /Gm- /EHsc /RTC1 /MDd /GS /fp:precise /Zc:wchar_t /Zc:forScope /Zc:inline /Fo"OBJ\X64\DEBUG\GAME-PREMAKE-MAIN\\" /Fd"OBJ\X64\DEBUG\GAME-PREMAKE-MAIN\VC143.PDB" /external:W3 /Gd /TP /FC C:\USERS\RUBEN\DOCUMENTS\UOC\PROGRAMACIONGRAFICA\PEC1\PARATROOPER\_BUILD\SCREEN_GAMEPLAY.CPP
^C:\USERS\RUBEN\DOCUMENTS\UOC\PROGRAMACIONGRAFICA\PEC1\PARATROOPER\_BUILD\SCREEN_LOGO.CPP
/c /I..\GAME /I..\GAME\SRC /I..\GAME\INCLUDE /I"..\RAYLIB-MASTER\SRC" /I"..\RAYLIB-MASTER\SRC\EXTERNAL" /I"..\RAYLIB-MASTER\SRC\EXTERNAL\GLFW\INCLUDE" /ZI /JMC /nologo /W3 /WX- /diagnostics:column /Od /D DEBUG /D PLATFORM_DESKTOP /D GRAPHICS_API_OPENGL_33 /D _WINSOCK_DEPRECATED_NO_WARNINGS /D _CRT_SECURE_NO_WARNINGS /D _WIN32 /D _MBCS /Gm- /EHsc /RTC1 /MDd /GS /fp:precise /Zc:wchar_t /Zc:forScope /Zc:inline /Fo"OBJ\X64\DEBUG\GAME-PREMAKE-MAIN\\" /Fd"OBJ\X64\DEBUG\GAME-PREMAKE-MAIN\VC143.PDB" /external:W3 /Gd /TP /FC C:\USERS\RUBEN\DOCUMENTS\UOC\PROGRAMACIONGRAFICA\PEC1\PARATROOPER\_BUILD\SCREEN_LOGO.CPP
^C:\USERS\RUBEN\DOCUMENTS\UOC\PROGRAMACIONGRAFICA\PEC1\PARATROOPER\_BUILD\SCREEN_OPTIONS.CPP
/c /I..\GAME /I..\GAME\SRC /I..\GAME\INCLUDE /I"..\RAYLIB-MASTER\SRC" /I"..\RAYLIB-MASTER\SRC\EXTERNAL" /I"..\RAYLIB-MASTER\SRC\EXTERNAL\GLFW\INCLUDE" /ZI /JMC /nologo /W3 /WX- /diagnostics:column /Od /D DEBUG /D PLATFORM_DESKTOP /D GRAPHICS_API_OPENGL_33 /D _WINSOCK_DEPRECATED_NO_WARNINGS /D _CRT_SECURE_NO_WARNINGS /D _WIN32 /D _MBCS /Gm- /EHsc /RTC1 /MDd /GS /fp:precise /Zc:wchar_t /Zc:forScope /Zc:inline /Fo"OBJ\X64\DEBUG\GAME-PREMAKE-MAIN\\" /Fd"OBJ\X64\DEBUG\GAME-PREMAKE-MAIN\VC143.PDB" /external:W3 /Gd /TP /FC C:\USERS\RUBEN\DOCUMENTS\UOC\PROGRAMACIONGRAFICA\PEC1\PARATROOPER\_BUILD\SCREEN_OPTIONS.CPP
^C:\USERS\RUBEN\DOCUMENTS\UOC\PROGRAMACIONGRAFICA\PEC1\PARATROOPER\_BUILD\SCREEN_TITLE.CPP
/c /I..\GAME /I..\GAME\SRC /I..\GAME\INCLUDE /I"..\RAYLIB-MASTER\SRC" /I"..\RAYLIB-MASTER\SRC\EXTERNAL" /I"..\RAYLIB-MASTER\SRC\EXTERNAL\GLFW\INCLUDE" /ZI /JMC /nologo /W3 /WX- /diagnostics:column /Od /D DEBUG /D PLATFORM_DESKTOP /D GRAPHICS_API_OPENGL_33 /D _WINSOCK_DEPRECATED_NO_WARNINGS /D _CRT_SECURE_NO_WARNINGS /D _WIN32 /D _MBCS /Gm- /EHsc /RTC1 /MDd /GS /fp:precise /Zc:wchar_t /Zc:forScope /Zc:inline /Fo"OBJ\X64\DEBUG\GAME-PREMAKE-MAIN\\" /Fd"OBJ\X64\DEBUG\GAME-PREMAKE-MAIN\VC143.PDB" /external:W3 /Gd /TP /FC C:\USERS\RUBEN\DOCUMENTS\UOC\PROGRAMACIONGRAFICA\PEC1\PARATROOPER\_BUILD\SCREEN_TITLE.CPP
^C:\USERS\RUBEN\DOCUMENTS\UOC\PROGRAMACIONGRAFICA\PEC1\PARATROOPER\_BUILD\SOLDIER.CPP
/c /I..\GAME /I..\GAME\SRC /I..\GAME\INCLUDE /I"..\RAYLIB-MASTER\SRC" /I"..\RAYLIB-MASTER\SRC\EXTERNAL" /I"..\RAYLIB-MASTER\SRC\EXTERNAL\GLFW\INCLUDE" /ZI /JMC /nologo /W3 /WX- /diagnostics:column /Od /D DEBUG /D PLATFORM_DESKTOP /D GRAPHICS_API_OPENGL_33 /D _WINSOCK_DEPRECATED_NO_WARNINGS /D _CRT_SECURE_NO_WARNINGS /D _WIN32 /D _MBCS /Gm- /EHsc /RTC1 /MDd /GS /fp:precise /Zc:wchar_t /Zc:forScope /Zc:inline /Fo"OBJ\X64\DEBUG\GAME-PREMAKE-MAIN\\" /Fd"OBJ\X64\DEBUG\GAME-PREMAKE-MAIN\VC143.PDB" /external:W3 /Gd /TP /FC C:\USERS\RUBEN\DOCUMENTS\UOC\PROGRAMACIONGRAFICA\PEC1\PARATROOPER\_BUILD\SOLDIER.CPP
^C:\USERS\RUBEN\DOCUMENTS\UOC\PROGRAMACIONGRAFICA\PEC1\PARATROOPER\_BUILD\TEXTUREMANAGER.CPP
/c /I..\GAME /I..\GAME\SRC /I..\GAME\INCLUDE /I"..\RAYLIB-MASTER\SRC" /I"..\RAYLIB-MASTER\SRC\EXTERNAL" /I"..\RAYLIB-MASTER\SRC\EXTERNAL\GLFW\INCLUDE" /ZI /JMC /nologo /W3 /WX- /diagnostics:column /Od /D DEBUG /D PLATFORM_DESKTOP /D GRAPHICS_API_OPENGL_33 /D _WINSOCK_DEPRECATED_NO_WARNINGS /D _CRT_SECURE_NO_WARNINGS /D _WIN32 /D _MBCS /Gm- /EHsc /RTC1 /MDd /GS /fp:precise /Zc:wchar_t /Zc:forScope /Zc:inline /Fo"OBJ\X64\DEBUG\GAME-PREMAKE-MAIN\\" /Fd"OBJ\X64\DEBUG\GAME-PREMAKE-MAIN\VC143.PDB" /external:W3 /Gd /TP /FC C:\USERS\RUBEN\DOCUMENTS\UOC\PROGRAMACIONGRAFICA\PEC1\PARATROOPER\_BUILD\TEXTUREMANAGER.CPP
