^C:\USERS\RUBEN\DOCUMENTS\UOC\PROGRAMACIONGRAFICA\PEC1\PARATROOPER\RAYLIB-MASTER\SRC\RAUDIO.C
/c /I"..\RAYLIB-MASTER\SRC" /I"..\RAYLIB-MASTER\SRC\EXTERNAL\GLFW\INCLUDE" /ZI /JMC /nologo /W3 /WX- /diagnostics:column /Od /D DEBUG /D PLATFORM_DESKTOP /D GRAPHICS_API_OPENGL_33 /D _WINSOCK_DEPRECATED_NO_WARNINGS /D _CRT_SECURE_NO_WARNINGS /D _MBCS /Gm- /EHsc /RTC1 /MDd /GS /fp:precise /Zc:wchar_t /Zc:forScope /Zc:inline /Fo"OBJ\X64\DEBUG\RAYLIB\\" /Fd"..\_BIN\DEBUG\RAYLIB.PDB" /external:W3 /Gd /TC /FC C:\USERS\RUBEN\DOCUMENTS\UOC\PROGRAMACIONGRAFICA\PEC1\PARATROOPER\RAYLIB-MASTER\SRC\RAUDIO.C
^C:\USERS\RUBEN\DOCUMENTS\UOC\PROGRAMACIONGRAFICA\PEC1\PARATROOPER\RAYLIB-MASTER\SRC\RCORE.C
/c /I"..\RAYLIB-MASTER\SRC" /I"..\RAYLIB-MASTER\SRC\EXTERNAL\GLFW\INCLUDE" /ZI /JMC /nologo /W3 /WX- /diagnostics:column /Od /D DEBUG /D PLATFORM_DESKTOP /D GRAPHICS_API_OPENGL_33 /D _WINSOCK_DEPRECATED_NO_WARNINGS /D _CRT_SECURE_NO_WARNINGS /D _MBCS /Gm- /EHsc /RTC1 /MDd /GS /fp:precise /Zc:wchar_t /Zc:forScope /Zc:inline /Fo"OBJ\X64\DEBUG\RAYLIB\\" /Fd"..\_BIN\DEBUG\RAYLIB.PDB" /external:W3 /Gd /TC /FC C:\USERS\RUBEN\DOCUMENTS\UOC\PROGRAMACIONGRAFICA\PEC1\PARATROOPER\RAYLIB-MASTER\SRC\RCORE.C
^C:\USERS\RUBEN\DOCUMENTS\UOC\PROGRAMACIONGRAFICA\PEC1\PARATROOPER\RAYLIB-MASTER\SRC\RGLFW.C
/c /I"..\RAYLIB-MASTER\SRC" /I"..\RAYLIB-MASTER\SRC\EXTERNAL\GLFW\INCLUDE" /ZI /JMC /nologo /W3 /WX- /diagnostics:column /Od /D DEBUG /D PLATFORM_DESKTOP /D GRAPHICS_API_OPENGL_33 /D _WINSOCK_DEPRECATED_NO_WARNINGS /D _CRT_SECURE_NO_WARNINGS /D _MBCS /Gm- /EHsc /RTC1 /MDd /GS /fp:precise /Zc:wchar_t /Zc:forScope /Zc:inline /Fo"OBJ\X64\DEBUG\RAYLIB\\" /Fd"..\_BIN\DEBUG\RAYLIB.PDB" /external:W3 /Gd /TC /FC C:\USERS\RUBEN\DOCUMENTS\UOC\PROGRAMACIONGRAFICA\PEC1\PARATROOPER\RAYLIB-MASTER\SRC\RGLFW.C
^C:\USERS\RUBEN\DOCUMENTS\UOC\PROGRAMACIONGRAFICA\PEC1\PARATROOPER\RAYLIB-MASTER\SRC\RMODELS.C
/c /I"..\RAYLIB-MASTER\SRC" /I"..\RAYLIB-MASTER\SRC\EXTERNAL\GLFW\INCLUDE" /ZI /JMC /nologo /W3 /WX- /diagnostics:column /Od /D DEBUG /D PLATFORM_DESKTOP /D GRAPHICS_API_OPENGL_33 /D _WINSOCK_DEPRECATED_NO_WARNINGS /D _CRT_SECURE_NO_WARNINGS /D _MBCS /Gm- /EHsc /RTC1 /MDd /GS /fp:precise /Zc:wchar_t /Zc:forScope /Zc:inline /Fo"OBJ\X64\DEBUG\RAYLIB\\" /Fd"..\_BIN\DEBUG\RAYLIB.PDB" /external:W3 /Gd /TC /FC C:\USERS\RUBEN\DOCUMENTS\UOC\PROGRAMACIONGRAFICA\PEC1\PARATROOPER\RAYLIB-MASTER\SRC\RMODELS.C
^C:\USERS\RUBEN\DOCUMENTS\UOC\PROGRAMACIONGRAFICA\PEC1\PARATROOPER\RAYLIB-MASTER\SRC\RSHAPES.C
/c /I"..\RAYLIB-MASTER\SRC" /I"..\RAYLIB-MASTER\SRC\EXTERNAL\GLFW\INCLUDE" /ZI /JMC /nologo /W3 /WX- /diagnostics:column /Od /D DEBUG /D PLATFORM_DESKTOP /D GRAPHICS_API_OPENGL_33 /D _WINSOCK_DEPRECATED_NO_WARNINGS /D _CRT_SECURE_NO_WARNINGS /D _MBCS /Gm- /EHsc /RTC1 /MDd /GS /fp:precise /Zc:wchar_t /Zc:forScope /Zc:inline /Fo"OBJ\X64\DEBUG\RAYLIB\\" /Fd"..\_BIN\DEBUG\RAYLIB.PDB" /external:W3 /Gd /TC /FC C:\USERS\RUBEN\DOCUMENTS\UOC\PROGRAMACIONGRAFICA\PEC1\PARATROOPER\RAYLIB-MASTER\SRC\RSHAPES.C
^C:\USERS\RUBEN\DOCUMENTS\UOC\PROGRAMACIONGRAFICA\PEC1\PARATROOPER\RAYLIB-MASTER\SRC\RTEXT.C
/c /I"..\RAYLIB-MASTER\SRC" /I"..\RAYLIB-MASTER\SRC\EXTERNAL\GLFW\INCLUDE" /ZI /JMC /nologo /W3 /WX- /diagnostics:column /Od /D DEBUG /D PLATFORM_DESKTOP /D GRAPHICS_API_OPENGL_33 /D _WINSOCK_DEPRECATED_NO_WARNINGS /D _CRT_SECURE_NO_WARNINGS /D _MBCS /Gm- /EHsc /RTC1 /MDd /GS /fp:precise /Zc:wchar_t /Zc:forScope /Zc:inline /Fo"OBJ\X64\DEBUG\RAYLIB\\" /Fd"..\_BIN\DEBUG\RAYLIB.PDB" /external:W3 /Gd /TC /FC C:\USERS\RUBEN\DOCUMENTS\UOC\PROGRAMACIONGRAFICA\PEC1\PARATROOPER\RAYLIB-MASTER\SRC\RTEXT.C
^C:\USERS\RUBEN\DOCUMENTS\UOC\PROGRAMACIONGRAFICA\PEC1\PARATROOPER\RAYLIB-MASTER\SRC\RTEXTURES.C
/c /I"..\RAYLIB-MASTER\SRC" /I"..\RAYLIB-MASTER\SRC\EXTERNAL\GLFW\INCLUDE" /ZI /JMC /nologo /W3 /WX- /diagnostics:column /Od /D DEBUG /D PLATFORM_DESKTOP /D GRAPHICS_API_OPENGL_33 /D _WINSOCK_DEPRECATED_NO_WARNINGS /D _CRT_SECURE_NO_WARNINGS /D _MBCS /Gm- /EHsc /RTC1 /MDd /GS /fp:precise /Zc:wchar_t /Zc:forScope /Zc:inline /Fo"OBJ\X64\DEBUG\RAYLIB\\" /Fd"..\_BIN\DEBUG\RAYLIB.PDB" /external:W3 /Gd /TC /FC C:\USERS\RUBEN\DOCUMENTS\UOC\PROGRAMACIONGRAFICA\PEC1\PARATROOPER\RAYLIB-MASTER\SRC\RTEXTURES.C
^C:\USERS\RUBEN\DOCUMENTS\UOC\PROGRAMACIONGRAFICA\PEC1\PARATROOPER\RAYLIB-MASTER\SRC\UTILS.C
/c /I"..\RAYLIB-MASTER\SRC" /I"..\RAYLIB-MASTER\SRC\EXTERNAL\GLFW\INCLUDE" /ZI /JMC /nologo /W3 /WX- /diagnostics:column /Od /D DEBUG /D PLATFORM_DESKTOP /D GRAPHICS_API_OPENGL_33 /D _WINSOCK_DEPRECATED_NO_WARNINGS /D _CRT_SECURE_NO_WARNINGS /D _MBCS /Gm- /EHsc /RTC1 /MDd /GS /fp:precise /Zc:wchar_t /Zc:forScope /Zc:inline /Fo"OBJ\X64\DEBUG\RAYLIB\\" /Fd"..\_BIN\DEBUG\RAYLIB.PDB" /external:W3 /Gd /TC /FC C:\USERS\RUBEN\DOCUMENTS\UOC\PROGRAMACIONGRAFICA\PEC1\PARATROOPER\RAYLIB-MASTER\SRC\UTILS.C
