^C:\USERS\RUBEN\DOCUMENTS\UOC\PROGRAMACIONGRAFICA\PEC1\PARATROOPER\_BUILD\OBJ\X64\DEBUG\RAYLIB\RAUDIO.OBJ|C:\USERS\RUBEN\DOCUMENTS\UOC\PROGRAMACIONGRAFICA\PEC1\PARATROOPER\_BUILD\OBJ\X64\DEBUG\RAYLIB\RCORE.OBJ|C:\USERS\RUBEN\DOCUMENTS\UOC\PROGRAMACIONGRAFICA\PEC1\PARATROOPER\_BUILD\OBJ\X64\DEBUG\RAYLIB\RGLFW.OBJ|C:\USERS\RUBEN\DOCUMENTS\UOC\PROGRAMACIONGRAFICA\PEC1\PARATROOPER\_BUILD\OBJ\X64\DEBUG\RAYLIB\RMODELS.OBJ|C:\USERS\RUBEN\DOCUMENTS\UOC\PROGRAMACIONGRAFICA\PEC1\PARATROOPER\_BUILD\OBJ\X64\DEBUG\RAYLIB\RSHAPES.OBJ|C:\USERS\RUBEN\DOCUMENTS\UOC\PROGRAMACIONGRAFICA\PEC1\PARATROOPER\_BUILD\OBJ\X64\DEBUG\RAYLIB\RTEXT.OBJ|C:\USERS\RUBEN\DOCUMENTS\UOC\PROGRAMACIONGRAFICA\PEC1\PARATROOPER\_BUILD\OBJ\X64\DEBUG\RAYLIB\RTEXTURES.OBJ|C:\USERS\RUBEN\DOCUMENTS\UOC\PROGRAMACIONGRAFICA\PEC1\PARATROOPER\_BUILD\OBJ\X64\DEBUG\RAYLIB\UTILS.OBJ
/OUT:"..\_BIN\DEBUG\RAYLIB.LIB" /NOLOGO /MACHINE:X64 OBJ\X64\DEBUG\RAYLIB\RAUDIO.OBJ
OBJ\X64\DEBUG\RAYLIB\RCORE.OBJ
OBJ\X64\DEBUG\RAYLIB\RGLFW.OBJ
OBJ\X64\DEBUG\RAYLIB\RMODELS.OBJ
OBJ\X64\DEBUG\RAYLIB\RSHAPES.OBJ
OBJ\X64\DEBUG\RAYLIB\RTEXT.OBJ
OBJ\X64\DEBUG\RAYLIB\RTEXTURES.OBJ
OBJ\X64\DEBUG\RAYLIB\UTILS.OBJ
